…
  Logical. Whether to suppress progress messages.

## Value

data frame

## Examples

``` r
calculate_z_scores(psu_hexagons, hex_id)
#> ℹ Spatial object land_hex should be POINTs not POLYGONs
#> • Don't worry, I'll fix it!
#> • Assuming constant attributes and using centroids as points
#> # A tibble: 33 × 3
#>    hex_id avg_abs_diff avg_z_score
#>    <glue>        <dbl>       <dbl>
#>  1 SA_09       115886.    -0.0907 
#>  2 SA_10       103092.    -0.187  
#>  3 SA_11       151740.    -0.138  
#>  4 SA_14       131041.    -0.00750
#>  5 SA_15       113327.     0.0536 
#>  6 SA_16       149411.     0.117  
#>  7 SA_17       157743.     0.0766 
#>  8 SA_18       113021.     0.0437 
#>  9 SA_19       104470.    -0.0762 
#> 10 SA_22       109150.     0.110  
#> # ℹ 23 more rows
```
