…
names(d)
#> [1] "inclusion_probs" "grts_output"    
d[["inclusion_probs"]]
#> Simple feature collection with 33 features and 11 fields
#> Geometry type: POINT
#> Dimension:     XY
#> Bounding box:  xmin: 25 ymin: 43.30127 xmax: 275 ymax: 259.8076
#> Projected CRS: NAD83 / Ontario MNR Lambert
#> # A tibble: 33 × 12
#>    hex_id  RawCost benefit       geometry LogCost ScLogCost scale_ben
#>  * <glue>    <dbl>   <dbl>    <POINT [m]>   <dbl>     <dbl>     <dbl>
#>  1 SA_09    1.73e9  0.0307  (25 43.30127)    9.24     0.888     0.513
#>  2 SA_10    1.59e9  0.0356  (25 129.9038)    9.20     0.885     0.594
#>  3 SA_11    1.77e9  0.0323  (25 216.5064)    9.25     0.889     0.538
#>  4 SA_14    1.67e9  0.0297  (50 86.60254)    9.22     0.887     0.495
#>  5 SA_15    1.52e9  0.0221  (50 173.2051)    9.18     0.883     0.369
#>  6 SA_16    2.00e9  0.0274  (50 259.8076)    9.30     0.894     0.458
#>  7 SA_17    2.18e9  0.0259  (75 43.30127)    9.34     0.898     0.431
#>  8 SA_18    2.24e9  0.0367  (75 129.9038)    9.35     0.899     0.613
#>  9 SA_19    1.69e9  0.0289  (75 216.5064)    9.23     0.887     0.482
#> 10 SA_22    1.71e9  0.0374 (100 86.60254)    9.23     0.888     0.623
#> # ℹ 23 more rows
#> # ℹ 5 more variables: partIP <dbl>, weightedIP <dbl>, inclpr <dbl>,
#> #   num_runs <dbl>, n_samples <dbl>
…
d
#> Simple feature collection with 33 features and 11 fields
#> Geometry type: POINT
#> Dimension:     XY
#> Bounding box:  xmin: 25 ymin: 43.30127 xmax: 275 ymax: 259.8076
#> Projected CRS: NAD83 / Ontario MNR Lambert
#> # A tibble: 33 × 12
#>    hex_id  RawCost benefit       geometry LogCost ScLogCost scale_ben
#>  * <glue>    <dbl>   <dbl>    <POINT [m]>   <dbl>     <dbl>     <dbl>
#>  1 SA_09    1.73e9  0.0298  (25 43.30127)    9.24     0.888     0.535
#>  2 SA_10    1.59e9  0.0321  (25 129.9038)    9.20     0.885     0.575
#>  3 SA_11    1.77e9  0.0304  (25 216.5064)    9.25     0.889     0.544
#>  4 SA_14    1.67e9  0.0307  (50 86.60254)    9.22     0.887     0.550
#>  5 SA_15    1.52e9  0.0266  (50 173.2051)    9.18     0.883     0.477
#>  6 SA_16    2.00e9  0.0351  (50 259.8076)    9.30     0.894     0.630
#>  7 SA_17    2.18e9  0.0303  (75 43.30127)    9.34     0.898     0.543
#>  8 SA_18    2.24e9  0.0368  (75 129.9038)    9.35     0.899     0.659
#>  9 SA_19    1.69e9  0.0275  (75 216.5064)    9.23     0.887     0.493
#> 10 SA_22    1.71e9  0.0373 (100 86.60254)    9.23     0.888     0.669
#> # ℹ 23 more rows
#> # ℹ 5 more variables: partIP <dbl>, weightedIP <dbl>, inclpr <dbl>,
#> #   num_runs <dbl>, n_samples <dbl>
```
